YH_rv_cpu/YH_rv_cpu_icache_tb.vcd
$date
   Tue Apr 28 01:56:51 2026
$end

$version
  2025.2
  $dumpfile ("YH_rv_cpu_icache_tb.vcd") 
$end

$timescale
  1ps
$end

$scope module YH_rv_cpu_icache_tb $end
$var reg 1 ! clk $end
$var reg 1 " rst_n $end
$var reg 32 # cpu_addr [31:0] $end
$var reg 1 $ cpu_req $end
$var wire 32 % cpu_rdata [31:0] $end
$var wire 1 & cpu_rvalid $end
$var wire 1 ' cpu_wait $end
$var wire 32 ( mem_addr [31:0] $end
$var wire 1 ) mem_req $end
$var wire 1 * mem_we $end
$var wire 32 + mem_wdata [31:0] $end
$var wire 4 , mem_wstrb [3:0] $end
$var reg 32 - mem_rdata [31:0] $end
$var reg 1 . mem_rvalid $end
$var integer 32 / i [31:0] $end
$var integer 32 0 test_count [31:0] $end
$var integer 32 1 pass_count [31:0] $end
$var integer 32 2 fail_count [31:0] $end
$scope module u_icache $end
$var wire 1 3 clk $end
$var wire 1 4 rst_n $end
$var wire 32 5 cpu_addr [31:0] $end
$var wire 1 6 cpu_req $end
$var wire 32 % cpu_rdata [31:0] $end
$var wire 1 & cpu_rvalid $end
$var wire 1 ' cpu_wait $end
$var wire 32 ( mem_addr [31:0] $end
$var wire 1 ) mem_req $end
$var wire 1 * mem_we $end
$var wire 32 + mem_wdata [31:0] $end
$var wire 4 , mem_wstrb [3:0] $end
$var wire 32 7 mem_rdata [31:0] $end
$var wire 1 8 mem_rvalid $end
$var wire 22 9 addr_tag [21:0] $end
$var wire 5 : addr_index [4:0] $end
$var wire 5 ; addr_offset [4:0] $end
$var integer 32 < way_idx [31:0] $end
$var integer 32 = set_base [31:0] $end
$var integer 32 > j [31:0] $end
$var reg 3 ? state_r [2:0] $end
$var reg 3 @ state_next [2:0] $end
$var reg 32 A miss_addr_r [31:0] $end
$var reg 5 B miss_index_r [4:0] $end
$var reg 1 C miss_way_r [0:0] $end
$var reg 22 D miss_tag_r [21:0] $end
$var reg 5 E refill_offset_r [4:0] $end
$var reg 1 F hit_way_r [0:0] $end
$var wire 1 G cache_hit $end
$var wire 1 H hit_way [0:0] $end
$var reg 1 I valid_bits_r [0:0] $end
$var reg 1 J dirty_bits_r [0:0] $end
$var wire 5 K refill_index [4:0] $end
$var wire 1 L refill_way_oh [0:0] $end
$var reg 5 M refill_index_r [4:0] $end
$var reg 1 N refill_way_oh_r [0:0] $end
$var integer 32 O cache_line_idx [31:0] $end
$var integer 32 P way [31:0] $end
$var wire 5 Q write_index [4:0] $end
$var wire 1 R write_way_oh [0:0] $end
$var reg 32 S rdata_r [31:0] $end
$var reg 1 T rvalid_r $end
$var reg 1 U wait_r $end
$var wire 5 V rdata_index [4:0] $end
$var wire 1 W cache_data_idx $end
$var reg 1 X mem_req_r $end
$var reg 32 Y mem_addr_r [31:0] $end
$scope function find_matching_way $end
$upscope $end
$upscope $end
$scope task test_sequential_fetch $end
$var reg 32 Z addr [31:0] $end
$var reg 32 [ expected_data [31:0] $end
$var reg 32 \ actual_data [31:0] $end
$upscope $end
$scope task test_random_access $end
$var reg 32 ] addr [31:0] $end
$var reg 32 ^ expected_data [31:0] $end
$var reg 32 _ actual_data [31:0] $end
$var integer 32 ` j [31:0] $end
$upscope $end
$scope task test_loop_access $end
$var reg 32 a addr [31:0] $end
$var reg 32 b expected_data [31:0] $end
$var reg 32 c actual_data [31:0] $end
$var integer 32 d iteration [31:0] $end
$upscope $end
$scope task test_large_span_access $end
$var reg 32 e addr [31:0] $end
$var reg 32 f expected_data [31:0] $end
$var reg 32 g actual_data [31:0] $end
$var integer 32 h j [31:0] $end
$upscope $end
$upscope $end
$enddefinitions $end

#0
$dumpvars
0!
0"
bx #
x$
b10011 %
0&
0'
b0 (
0)
0*
b0 +
b0 ,
b0 -
0.
b10000000000 /
b0 0
b0 1
b0 2
03
04
bx 5
x6
b0 7
08
bx 9
bx :
b0xxx ;
bx <
bx =
b1 >
b0 ?
b0 @
b0 A
b0 B
0C
bx D
b0 E
0F
0G
0H
xI
xJ
b0 K
0L
bx M
xN
bx O
bx P
b0 Q
0R
b10011 S
0T
0U
bx V
xW
0X
b0 Y
bx Z
bx [
bx \
bx ]
bx ^
bx _
bx `
bx a
bx b
bx c
bx d
bx e
bx f
bx g
bx h
$end

#5000
1!
13
b1 >
b0 M
0N

#10000
0!
03

#15000
1!
13
b1 >

#20000
0!
03

#25000
1!
13
b1 >

#30000
0!
03

#35000
1!
13
b1 >

#40000
0!
03

#45000
1!
13
b1 >

#50000
0!
03

#55000
1!
13
b1 >

#60000
0!
03

#65000
1!
13
b1 >

#70000
0!
03

#75000
1!
13
b1 >

#80000
0!
03

#85000
1!
13
b1 >

#90000
0!
03

#95000
1!
13
b1 >

#100000
0!
1"
03
14

#105000
1!
13
b1 >

#110000
0!
03

#115000
1!
13
b1 >

#120000
0!
03

#125000
1!
13
b1 >

#130000
0!
03

#135000
1!
13
b1 >

#140000
0!
03

#145000
1!
13
b1 >

#150000
0!
b0 #
1$
b1 0
03
b0 5
16
b0 9
b0 :
b0 ;
b0 =
b1 >
b1 @
xI
xJ
b0 V
0W
b0 Z

#155000
1!
1'
13
b1 >
b1 ?
b10 @
1U

#160000
0!
03

#165000
1!
b100 #
13
b100 5
b1 ;
b1 >
b10 ?
b100 A
1C
1L
b100 Z
b10011 [
b10011 \

#170000
0!
03

#175000
1!
1)
13
b1 >
1N
1R
1X

#177000
b10011 -
1.
b10011 7
18

#180000
0!
03

#185000
1!
13
b1 >
b1 E
b0 O
b1 P

#190000
0!
03

#195000
1!
1&
0'
b100 (
13
b1 >
b10 E
b1 P
1T
0U
b100 Y

#197000
b100000000000000010011 -
b100000000000000010011 7

#200000
0!
03

#205000
1!
0&
1'
b1000 (
13
b1 >
b11 E
b1 P
0T
1U
b1000 Y

#207000
b1000000000000010010011 -
b1000000000000010010011 7

#210000
0!
03

#215000
1!
b1000 #
b1100 (
b1 2
13
b1000 5
b10 ;
b1 >
b100 E
b1 P
b1100 Y
b1000 Z
b100000000000000010011 [

#217000
b1100000000000100010011 -
b1100000000000100010011 7

#220000
0!
03

#225000
1!
b10000 (
13
b1 >
b101 E
b1 P
b10000 Y

#227000
b10000001000000110010011 -
b10000001000000110010011 7

#230000
0!
03

#235000
1!
b10100 (
13
b1 >
b110 E
b1 P
b10100 Y

#237000
b10100010000001000010011 -
b10100010000001000010011 7

#240000
0!
03

#245000
1!
b11000 (
13
b1 >
b0 @
b111 E
b1 P
b11000 Y

#247000
b11000011000001010010011 -
b11000011000001010010011 7

#250000
0!
03

#255000
1!
b11100 (
0)
b0 -
0.
13
b0 7
08
b1 >
b0 ?
b1 @
b1000 E
1G
1H
1I
0J
b1 P
b11100 Y

#260000
0!
03

#265000
1!
1&
0'
13
b1 >
b1 ?
b0 @
1F
1T
0U
1W
0X

#270000
0!
03

#275000
1!
13
b1 >
b0 ?
b1 @

#280000
0!
03

#285000
1!
b1100 #
b10 2
13
b1100 5
b11 ;
b1 >
b1 ?
b0 @
b1100 Z
b1000000000000010010011 [

#290000
0!
03

#295000
1!
13
b1 >
b0 ?
b1 @

#300000
0!
03

#305000
1!
b10000 #
b11 2
13
b10000 5
b100 ;
b1 >
b1 ?
b0 @
b10000 Z
b1100000000000100010011 [

#310000
0!
03

#315000
1!
13
b1 >
b0 ?
b1 @

#320000
0!
03

#325000
1!
b10100 #
b100 2
13
b10100 5
b101 ;
b1 >
b1 ?
b0 @
b10100 Z
b10000001000000110010011 [

#330000
0!
03

#335000
1!
13
b1 >
b0 ?
b1 @

#340000
0!
03

#345000
1!
b11000 #
b101 2
13
b11000 5
b110 ;
b1 >
b1 ?
b0 @
b11000 Z
b10100010000001000010011 [

#350000
0!
03

#355000
1!
13
b1 >
b0 ?
b1 @

#360000
0!
03

#365000
1!
b11100 #
b110 2
13
b11100 5
b111 ;
b1 >
b1 ?
b0 @
b11100 Z
b11000011000001010010011 [

#370000
0!
03

#375000
1!
13
b1 >
b0 ?
b1 @

#380000
0!
03

#385000
1!
b0 #
1$
b10 0
b1 1
b111 2
13
b0 5
b0 ;
b1 >
b1 ?
b0 @
b100000 Z
b11100100000001010110011 [
b0 ]
b0 `

#390000
0!
03

#395000
1!
13
b1 >
b0 ?
b1 @

#400000
0!
03

#405000
1!
b100000000 #
13
b100000000 5
b1000 :
b1000 =
b1 >
b1 ?
b10 @
0G
0H
xI
xJ
b0 V
b100000000 ]
b10011 ^
b10011 _
b1 `

#410000
0!
03

#415000
1!
13
b1 >
b10 ?
b100000000 A
b1000 B
b0 E
b1000 K
b1000 V

#420000
0!
03

#425000
1!
b1000000000 #
0&
1'
b10000000000 (
1)
13
b1000000000 5
b10000 :
b10000 =
b1 >
xI
xJ
b1000 M
b1000 Q
0T
1U
1X
b10000000000 Y
b1000000000 ]
b10 `

#427000
b10011 -
1.
b10011 7
18

#430000
0!
03

#435000
1!
1&
0'
13
b1 >
b1 E
b1000 O
b1 P
1T
0U

#440000
0!
03

#445000
1!
0&
1'
b10000000100 (
13
b1 >
b10 E
b1 P
0T
1U
b10000000100 Y

#450000
0!
03

#455000
1!
b1100000000 #
b10000001000 (
13
b1100000000 5
b11000 :
b11000 =
b1 >
b11 E
xI
xJ
b1 P
b10000001000 Y
b1100000000 ]
b11 `

#460000
0!
03

#465000
1!
b10000001100 (
13
b1 >
b100 E
b1 P
b10000001100 Y

#470000
0!
03

#475000
1!
b10000010000 (
13
b1 >
b101 E
b1 P
b10000010000 Y

#480000
0!
03

#485000
1!
b10000010100 (
13
b1 >
b110 E
b1 P
b10000010100 Y

#490000
0!
03

#495000
1!
b10000011000 (
13
b1 >
b0 @
b111 E
b1 P
b10000011000 Y

#500000
0!
03

#505000
1!
b10000011100 (
0)
b0 -
0.
13
b0 7
08
b1 >
b0 ?
b1 @
b1000 E
xI
xJ
b1 P
b11000 V
b10000011100 Y

#510000
0!
03

#515000
1!
13
b1 >
b1 ?
b10 @
0F
b1000 V
0W
0X

#520000
0!
03

#525000
1!
13
b1 >
b10 ?
b1100000000 A
b11000 B
b0 E
b11000 K
b11000 V

#530000
0!
03

#535000
1!
b110000000000 (
1)
13
b1 >
b11000 M
b11000 Q
1X
b110000000000 Y

#537000
b10011 -
1.
b10011 7
18

#540000
0!
03

#545000
1!
1&
0'
13
b1 >
b1 E
b11000 O
b1 P
1T
0U

#550000
0!
03

#555000
1!
0&
1'
b110000000100 (
13
b1 >
b10 E
b1 P
0T
1U
b110000000100 Y

#560000
0!
03

#565000
1!
b10000 #
b110000001000 (
13
b10000 5
b0 :
b100 ;
b0 =
b1 >
b11 E
1G
1H
1I
0J
b1 P
b110000001000 Y
b10000 ]
b100 `

#570000
0!
03

#575000
1!
b110000001100 (
13
b1 >
b100 E
b1 P
b110000001100 Y

#580000
0!
03

#585000
1!
1&
0'
b110000010000 (
13
b1 >
b101 E
b1 P
1T
0U
b110000010000 Y

#590000
0!
03

#595000
1!
0&
1'
b110000010100 (
13
b1 >
b110 E
b1 P
0T
1U
b110000010100 Y

#600000
0!
03

#605000
1!
b100010000 #
b110000011000 (
b1000 2
13
b100010000 5
b1000 :
b1000 =
b1 >
b0 @
b111 E
1I
b1 P
b110000011000 Y
b100010000 ]
b10000001000000110010011 ^
b101 `

#610000
0!
03

#615000
1!
b110000011100 (
0)
b0 -
0.
13
b0 7
08
b1 >
b0 ?
b1 @
b1000 E
1I
b1 P
b1000 V
b110000011100 Y

#620000
0!
03

#625000
1!
1&
0'
13
b1 >
b1 ?
b0 @
1F
1T
0U
b11000 V
1W
0X

#630000
0!
03

#635000
1!
13
b1 >
b0 ?
b1 @
b1000 V

#640000
0!
03

#645000
1!
b1000010000 #
13
b1000010000 5
b10000 :
b10000 =
b1 >
b1 ?
b10 @
0G
0H
xI
xJ
b11000 V
b1000010000 ]
b10011 ^
b110 `

#650000
0!
03

#655000
1!
13
b1 >
b10 ?
b1000010000 A
b10000 B
b0 E
b10000 K
b10000 V

#660000
0!
03

#665000
1!
b1100010000 #
0&
1'
b100000000000 (
1)
13
b1100010000 5
b11000 :
b11000 =
b1 >
1G
1H
1I
0J
b10000 M
b10000 Q
0T
1U
1X
b100000000000 Y
b1100010000 ]
b111 `

#667000
b10011 -
1.
b10011 7
18

#670000
0!
03

#675000
1!
13
b1 >
b1 E
b10000 O
b1 P

#680000
0!
03

#685000
1!
b100000000100 (
13
b1 >
b10 E
b1 P
b100000000100 Y

#690000
0!
03

#695000
1!
b100000001000 (
13
b1 >
b11 E
b1 P
b100000001000 Y

#700000
0!
03

#705000
1!
b100000001100 (
13
b1 >
b100 E
b1 P
b100000001100 Y

#710000
0!
03

#715000
1!
1&
0'
b100000010000 (
13
b1 >
b101 E
b1 P
1T
0U
b100000010000 Y

#720000
0!
03

#725000
1!
0&
1'
b100000010100 (
13
b1 >
b110 E
b1 P
0T
1U
b100000010100 Y

#730000
0!
03

#735000
1!
b0 #
1$
b100000011000 (
b11 0
b10 1
13
b0 5
b0 :
b0 ;
b0 =
b1 >
b0 @
b111 E
1I
b1 P
b100000011000 Y
b1000 `
b0 a
b0 d

#740000
0!
03

#745000
1!
b100000011100 (
0)
b0 -
0.
13
b0 7
08
b1 >
b0 ?
b1 @
b1000 E
1I
b1 P
b0 V
b100000011100 Y

#750000
0!
03

#755000
1!
1&
0'
13
b1 >
b1 ?
b0 @
1T
0U
b10000 V
0X

#760000
0!
03

#765000
1!
13
b1 >
b0 ?
b1 @
b0 V

#770000
0!
03

#775000
1!
b100 #
13
b100 5
b1 ;
b1 >
b1 ?
b0 @
b10000 V
b100 a
b10011 b
b10011 c

#780000
0!
03

#785000
1!
13
b1 >
b0 ?
b1 @
b0 V

#790000
0!
03

#795000
1!
b1000 #
b1001 2
13
b1000 5
b10 ;
b1 >
b1 ?
b0 @
b10000 V
b1000 a
b100000000000000010011 b

#800000
0!
03

#805000
1!
13
b1 >
b0 ?
b1 @
b0 V

#810000
0!
03

#815000
1!
b1100 #
b1010 2
13
b1100 5
b11 ;
b1 >
b1 ?
b0 @
b10000 V
b1100 a
b1000000000000010010011 b

#820000
0!
03

#825000
1!
13
b1 >
b0 ?
b1 @
b0 V

#830000
0!
03

#835000
1!
b0 #
b1011 2
13
b0 5
b0 ;
b1 >
b1 ?
b0 @
b10000 V
b0 a
b1100000000000100010011 b
b1 d

#840000
0!
03

#845000
1!
13
b1 >
b0 ?
b1 @
b0 V

#850000
0!
03

#855000
1!
b100 #
13
b100 5
b1 ;
b1 >
b1 ?
b0 @
b10000 V
b100 a
b10011 b

#860000
0!
03

#865000
1!
13
b1 >
b0 ?
b1 @
b0 V

#870000
0!
03

#875000
1!
b1000 #
b1100 2
13
b1000 5
b10 ;
b1 >
b1 ?
b0 @
b10000 V
b1000 a
b100000000000000010011 b

#880000
0!
03

#885000
1!
13
b1 >
b0 ?
b1 @
b0 V

#890000
0!
03

#895000
1!
b1100 #
b1101 2
13
b1100 5
b11 ;
b1 >
b1 ?
b0 @
b10000 V
b1100 a
b1000000000000010010011 b

#900000
0!
03

#905000
1!
13
b1 >
b0 ?
b1 @
b0 V

#910000
0!
03

#915000
1!
b0 #
b1110 2
13
b0 5
b0 ;
b1 >
b1 ?
b0 @
b10000 V
b0 a
b1100000000000100010011 b
b10 d

#920000
0!
03

#925000
1!
13
b1 >
b0 ?
b1 @
b0 V

#930000
0!
03

#935000
1!
b100 #
13
b100 5
b1 ;
b1 >
b1 ?
b0 @
b10000 V
b100 a
b10011 b

#940000
0!
03

#945000
1!
13
b1 >
b0 ?
b1 @
b0 V

#950000
0!
03

#955000
1!
b1000 #
b1111 2
13
b1000 5
b10 ;
b1 >
b1 ?
b0 @
b10000 V
b1000 a
b100000000000000010011 b

#960000
0!
03

#965000
1!
13
b1 >
b0 ?
b1 @
b0 V

#970000
0!
03

#975000
1!
b1100 #
b10000 2
13
b1100 5
b11 ;
b1 >
b1 ?
b0 @
b10000 V
b1100 a
b1000000000000010010011 b

#980000
0!
03

#985000
1!
13
b1 >
b0 ?
b1 @
b0 V

#990000
0!
03

#995000
1!
b0 #
b10001 2
13
b0 5
b0 ;
b1 >
b1 ?
b0 @
b10000 V
b0 a
b1100000000000100010011 b
b11 d

#1000000
0!
03

#1005000
1!
13
b1 >
b0 ?
b1 @
b0 V

#1010000
0!
03

#1015000
1!
b100 #
13
b100 5
b1 ;
b1 >
b1 ?
b0 @
b10000 V
b100 a
b10011 b

#1020000
0!
03

#1025000
1!
13
b1 >
b0 ?
b1 @
b0 V

#1030000
0!
03

#1035000
1!
b1000 #
b10010 2
13
b1000 5
b10 ;
b1 >
b1 ?
b0 @
b10000 V
b1000 a
b100000000000000010011 b

#1040000
0!
03

#1045000
1!
13
b1 >
b0 ?
b1 @
b0 V

#1050000
0!
03

#1055000
1!
b1100 #
b10011 2
13
b1100 5
b11 ;
b1 >
b1 ?
b0 @
b10000 V
b1100 a
b1000000000000010010011 b

#1060000
0!
03

#1065000
1!
13
b1 >
b0 ?
b1 @
b0 V

#1070000
0!
03

#1075000
1!
b0 #
1$
b100 0
b11 1
b10100 2
13
b0 5
b0 ;
b1 >
b1 ?
b0 @
b10000 V
b10000 a
b1100000000000100010011 b
b100 d
b0 e
b0 h

#1080000
0!
03

#1085000
1!
13
b1 >
b0 ?
b1 @
b0 V

#1090000
0!
03

#1095000
1!
b10000000000 #
13
b10000000000 5
b1 9
b1 >
b1 ?
b10 @
0G
0H
b10000 V
b10000000000 e
b10011 f
b10011 g
b1 h

#1100000
0!
03

#1105000
1!
13
b1 >
b10 ?
b10000000000 A
b0 B
b0 E
b0 K
b0 V

#1110000
0!
03

#1115000
1!
b100000000000 #
0&
1'
b1000000000000 (
1)
13
b100000000000 5
b10 9
b1 >
b0 M
b0 Q
0T
1U
1X
b1000000000000 Y
b100000000000 e
b10 h

#1117000
b10011 -
1.
b10011 7
18

#1120000
0!
03

#1125000
1!
1&
0'
13
b1 >
b1 E
b0 O
b1 P
1T
0U

#1130000
0!
03

#1135000
1!
0&
1'
b1000000000100 (
13
b1 >
b10 E
b1 P
0T
1U
b1000000000100 Y

#1137000
b100000000000000010011 -
b100000000000000010011 7

#1140000
0!
03

#1145000
1!
b110000000000 #
b1000000001000 (
13
b110000000000 5
b11 9
b1 >
b11 E
b1 P
b1000000001000 Y
b110000000000 e
b11 h

#1147000
b1000000000000010010011 -
b1000000000000010010011 7

#1150000
0!
03

#1155000
1!
b1000000001100 (
13
b1 >
b100 E
b1 P
b1000000001100 Y

#1157000
b1100000000000100010011 -
b1100000000000100010011 7

#1160000
0!
03

#1165000
1!
b1000000010000 (
13
b1 >
b101 E
b1 P
b1000000010000 Y

#1167000
b10000001000000110010011 -
b10000001000000110010011 7

#1170000
0!
03

#1175000
1!
b1000000010100 (
13
b1 >
b110 E
b1 P
b1000000010100 Y

#1177000
b10100010000001000010011 -
b10100010000001000010011 7

#1180000
0!
03

#1185000
1!
b1000000011000 (
13
b1 >
b0 @
b111 E
b1 P
b1000000011000 Y

#1187000
b11000011000001010010011 -
b11000011000001010010011 7

#1190000
0!
03

#1195000
1!
b1000000011100 (
0)
b0 -
0.
13
b0 7
08
b1 >
b0 ?
b1 @
b1000 E
b1 P
b1000000011100 Y

#1200000
0!
03

#1205000
1!
13
b1 >
b1 ?
b10 @
0F
0W
0X

#1210000
0!
03

#1215000
1!
13
b1 >
b10 ?
b110000000000 A
b0 E

#1220000
0!
03

#1225000
1!
b11000000000000 (
1)
13
b1 >
1X
b11000000000000 Y

#1227000
b10011 -
1.
b10011 7
18

#1230000
0!
03

#1235000
1!
1&
0'
13
b1 >
b1 E
b1 P
1T
0U

#1240000
0!
03

#1245000
1!
0&
1'
b11000000000100 (
13
b1 >
b10 E
b1 P
0T
1U
b11000000000100 Y

#1247000
b100000000000000010011 -
b100000000000000010011 7

#1250000
0!
03

#1255000
1!
0$
b11000000001000 (
b100 1
13
06
b1 >
b11 E
b1 P
b11000000001000 Y
b100 h

#1257000
b1000000000000010010011 -
b1000000000000010010011 7

#1260000
0!
03

#1265000
1!
b11000000001100 (
13
b1 >
b100 E
b1 P
b11000000001100 Y

#1267000
b1100000000000100010011 -
b1100000000000100010011 7

#1270000
0!
03

#1275000
1!
b11000000010000 (
13
b1 >
b101 E
b1 P
b11000000010000 Y

#1277000
b10000001000000110010011 -
b10000001000000110010011 7

#1280000
0!
03

#1285000
1!
b11000000010100 (
13
b1 >
b110 E
b1 P
b11000000010100 Y

#1287000
b10100010000001000010011 -
b10100010000001000010011 7

#1290000
0!
03

#1295000
1!
b11000000011000 (
13
b1 >
b0 @
b111 E
b1 P
b11000000011000 Y

#1297000
b11000011000001010010011 -
b11000011000001010010011 7

#1300000
0!
03

#1305000
1!
b11000000011100 (
0)
b0 -
0.
13
b0 7
08
b1 >
b0 ?
b1000 E
b1 P
b11000000011100 Y

#1310000
0!
03

#1315000
1!
0'
13
b1 >
0U
0X

#1320000
0!
03

#1325000
1!
13
b1 >

#1330000
0!
03

#1335000
1!
13
b1 >

#1340000
0!
03

#1345000
1!
13
b1 >

