artifacts/syncbram_negedge_zbc_memidx_bht2_20260515/coremark_l0_16384_xor_profile_dynamic_isa.log

****** xsim v2025.2 (64-bit)
  **** SW Build 6299465 on Fri Nov 14 19:35:11 GMT 2025
  **** IP Build 6300035 on Fri Nov 14 10:48:45 MST 2025
  **** SharedData Build 6298862 on Thu Nov 13 04:50:51 MST 2025
  **** Start of session at: Fri May 15 20:50:47 2026
    ** Copyright 1986-2022 Xilinx, Inc. All Rights Reserved.
    ** Copyright 2022-2025 Advanced Micro Devices, Inc. All Rights Reserved.

source xsim.dir/YH_rv_cpu_coremark_profile_tb_snapshot/xsim_script.tcl
# xsim {YH_rv_cpu_coremark_profile_tb_snapshot} -testplusarg max_cycles=20000000 -autoloadwcfg -runall
Time resolution is 1 ps
run -all
Starting CoreMark profiling simulation (MAX_CYCLES=20000000)...
2K performance run parameters for coremark.
CoreMark Size    : 666
Total ticks      : 1626038
Total time (secs): 0
ERROR! Must execute for at least 10 secs for a valid result!
Iterations       : 10
Compiler version : GCC 15.2.0
Compiler flags   : -O3 -funroll-loops -mbranch-cost=1 -fno-schedule-insns -fno-schedule-insns2 -funroll-all-loops --param max-unrolled-insns=800 --param max-average-unrolled-insns=320 -finline-functions --param max-inline-insns-single=1000 --param max-inline-insns-auto=1000 --param inline-unit-growth=500 -fno-crossjumping -O2 -fschedule-insns -fschedule-insns2 -fno-caller-saves -march=rv32i_zmmul_zba_zbb_zbs_zbc_zicond_xtheadba_xtheadbb_xtheadbs_xtheadcondmov_xtheadmemidx_zicsr -mabi=ilp32
Memory location  : SoC ROM/RAM
seedcrc          : 0xe9f5
[0]crclist       : 0xe714
[0]crcmatrix     : 0x1fd7
[0]crcstate      : 0x8e3a
[0]crcfinal      : 0xfcaf
Errors detected

PASS: coremark profile completed at PC=000044bc in 1659814 cycles
PROFILE: total_cycles=1659814
PROFILE: timer_lo_read_count=2
PROFILE: timed_cycles=1626038
PROFILE: timed_id_ex_valid_cycles=1624254
PROFILE: timed_non_idex_cycles=1784
PROFILE: timed_stall_decode_cycles=0
PROFILE: timed_load_use_hazard_cycles=0
PROFILE: timed_ex_mem_load_use_hazard_cycles=0
PROFILE: timed_mem_wb_load_use_hazard_cycles=0
PROFILE: timed_mem_wait_cycles=0
PROFILE: timed_ex_redirect_cycles=571
PROFILE: timed_decode_flush_cycles=1461
PROFILE: timed_ex_decode_flush_cycles=1461
PROFILE: timed_id_decode_redirect_cycles=114053
PROFILE: timed_branch_predict_redirect_cycles=49509
PROFILE: timed_jal_predict_redirect_cycles=2342
PROFILE: timed_if_id_invalid_cycles=343
PROFILE: timed_if_id_bubble_cycles=343
PROFILE: timed_non_idex_decode_flush_cycles=0
PROFILE: timed_non_idex_id_redirect_cycles=486
PROFILE: timed_non_idex_predict_redirect_cycles=4
PROFILE: timed_non_idex_ex_redirect_cycles=0
PROFILE: timed_non_idex_if_id_invalid_cycles=9
PROFILE: timed_id_beq_decode_redirect_cycles=26301
PROFILE: timed_id_bne_decode_redirect_cycles=35570
PROFILE: timed_id_blt_decode_redirect_cycles=2724
PROFILE: timed_id_bge_decode_redirect_cycles=5346
PROFILE: timed_id_bltu_decode_redirect_cycles=15380
PROFILE: timed_id_bgeu_decode_redirect_cycles=13200
PROFILE: timed_id_branch_decode_candidate_cycles=406239
PROFILE: timed_id_branch_decode_pending_cycles=113180
PROFILE: timed_id_branch_decode_redirect_cycles=98521
PROFILE: timed_id_beq_decode_pending_cycles=63981
PROFILE: timed_id_bne_decode_pending_cycles=49199
PROFILE: timed_id_blt_decode_pending_cycles=0
PROFILE: timed_id_bge_decode_pending_cycles=0
PROFILE: timed_id_bltu_decode_pending_cycles=0
PROFILE: timed_id_bgeu_decode_pending_cycles=0
PROFILE: timed_load_branch_fuse_candidate_cycles=34
PROFILE: timed_load_beq_fuse_candidate_cycles=24
PROFILE: timed_load_bne_fuse_candidate_cycles=10
PROFILE: timed_id_ex_load_cycles=410170
PROFILE: timed_id_ex_store_cycles=44513
PROFILE: timed_id_ex_branch_cycles=406239
PROFILE: timed_id_ex_jump_cycles=17874
PROFILE: timed_id_ex_mul_cycles=93960
PROFILE: timed_id_ex_mulh_cycles=0
PROFILE: timed_id_ex_mulhsu_cycles=0
PROFILE: timed_id_ex_mulhu_cycles=0
PROFILE: timed_id_ex_clmul_cycles=5840
PROFILE: timed_id_ex_clmulh_cycles=5840
PROFILE: timed_id_ex_shadd_cycles=26600
PROFILE: timed_id_ex_xthead_addsl_cycles=0
PROFILE: timed_id_ex_xthead_ext_cycles=76442
PROFILE: timed_id_ex_xthead_condmove_cycles=27780
PROFILE: timed_id_ex_zicond_cycles=0
PROFILE: timed_id_ex_bitextract_cycles=120
PROFILE: timed_id_ex_max_cycles=0
PROFILE: timed_id_ex_pack_cycles=0
PROFILE: timed_id_ex_xcrc_cycles=0
PROFILE: timed_pc_startup_cycles=0
PROFILE: timed_pc_calc_cycles=240
PROFILE: timed_pc_list_cycles=471690
PROFILE: timed_pc_iterate_cycles=0
PROFILE: timed_pc_main_cycles=0
PROFILE: timed_pc_matrix_cycles=193
PROFILE: timed_pc_state_cycles=82200
PROFILE: timed_pc_crc_cycles=502640
PROFILE: timed_pc_port_cycles=82560
PROFILE: timed_pc_unknown_cycles=484731
PROFILE: stall_decode_cycles=0
PROFILE: mem_wait_cycles=0
PROFILE: ex_trap_valid_cycles=0
PROFILE: ex_mret_valid_cycles=0
PROFILE: ex_branch_redirect_cycles=621
PROFILE: ex_beq_redirect_cycles=587
PROFILE: ex_bne_redirect_cycles=0
PROFILE: ex_blt_redirect_cycles=0
PROFILE: ex_bge_redirect_cycles=0
PROFILE: ex_bltu_redirect_cycles=34
PROFILE: ex_bgeu_redirect_cycles=0
PROFILE: ex_jal_redirect_cycles=0
PROFILE: ex_jalr_redirect_cycles=26
PROFILE: ex_fetch_redirect_valid_cycles=1554
PROFILE: fetch_queue_empty_cycles=1655357
PROFILE: fetch_redirect_reuse_cycles=0
PROFILE: fetch_redirect_reuse_miss_cycles=647
PROFILE: fetch_redirect_buf0_hit_cycles=0
PROFILE: fetch_redirect_buf1_hit_cycles=0
PROFILE: id_ex_valid_cycles=1657728
PROFILE: id_ex_load_cycles=414372
PROFILE: id_ex_store_cycles=50307
PROFILE: id_ex_branch_cycles=414429
PROFILE: id_ex_jump_cycles=20601
PROFILE: id_ex_jal_cycles=18101
PROFILE: id_ex_jalr_cycles=2500
PROFILE: id_ex_csr_cycles=0
PROFILE: id_ex_mul_cycles=94055
PROFILE: id_ex_mulh_cycles=0
PROFILE: id_ex_mulhsu_cycles=0
PROFILE: id_ex_mulhu_cycles=5
PROFILE: id_ex_div_cycles=0
PROFILE: id_ex_divu_cycles=0
PROFILE: id_ex_rem_cycles=0
PROFILE: id_ex_remu_cycles=0
PROFILE: pc_startup_cycles=8199
PROFILE: pc_calc_cycles=240
PROFILE: pc_list_cycles=471936
PROFILE: pc_list_init_cycles=37304
PROFILE: pc_list_runtime_cycles=434632
PROFILE: pc_iterate_cycles=356
PROFILE: pc_main_cycles=4189
PROFILE: pc_matrix_cycles=496
PROFILE: pc_matrix_test_cycles=260
PROFILE: pc_core_bench_matrix_cycles=15
PROFILE: pc_core_init_matrix_cycles=30
PROFILE: pc_matrix_sum_cycles=0
PROFILE: pc_matrix_mul_const_cycles=0
PROFILE: pc_matrix_add_const_cycles=30
PROFILE: pc_matrix_mul_vect_cycles=111
PROFILE: pc_matrix_mul_matrix_cycles=25
PROFILE: pc_matrix_bitextract_cycles=25
PROFILE: pc_state_cycles=82237
PROFILE: pc_core_init_state_cycles=3997
PROFILE: pc_state_transition_cycles=33000
PROFILE: pc_core_bench_state_cycles=45240
PROFILE: pc_crc_cycles=502640
PROFILE: pc_port_cycles=83613
PROFILE: pc_unknown_cycles=503822
PROFILE: pc_top rank=0 pc=0000059c cycles=27910
PROFILE: pc_top rank=1 pc=000005a0 cycles=27910
PROFILE: pc_top rank=2 pc=000005a4 cycles=27910
PROFILE: pc_top rank=3 pc=0000058c cycles=27780
PROFILE: pc_top rank=4 pc=00000590 cycles=27780
PROFILE: pc_top rank=5 pc=00000594 cycles=27780
PROFILE: pc_top rank=6 pc=00000598 cycles=27780
PROFILE: pc_top rank=7 pc=00000bc0 cycles=7630
PROFILE: pc_top rank=8 pc=00000bc4 cycles=7630
PROFILE: pc_top rank=9 pc=00000bc8 cycles=7620
PROFILE: pc_top rank=10 pc=00000bcc cycles=7620
PROFILE: pc_top rank=11 pc=00008b98 cycles=7400
PROFILE: pc_top rank=12 pc=00008b9c cycles=7400
PROFILE: pc_top rank=13 pc=00008ba0 cycles=7400
PROFILE: pc_top rank=14 pc=00008ba4 cycles=7400
PROFILE: pc_top rank=15 pc=00008c7c cycles=7400
PROFILE: pc_top rank=16 pc=00008c80 cycles=7400
PROFILE: pc_top rank=17 pc=00008c84 cycles=7400
PROFILE: pc_top rank=18 pc=00008c88 cycles=7400
PROFILE: pc_top rank=19 pc=00000bd0 cycles=7130
PROFILE: pc_top rank=20 pc=00000bd4 cycles=7130
PROFILE: pc_top rank=21 pc=00000bd8 cycles=7120
PROFILE: pc_top rank=22 pc=00000bdc cycles=7120
PROFILE: pc_top rank=23 pc=00000518 cycles=6840
PROFILE: pc_top rank=24 pc=0000051c cycles=6840
PROFILE: pc_top rank=25 pc=00000520 cycles=6780
PROFILE: pc_top rank=26 pc=00000524 cycles=6780
PROFILE: pc_top rank=27 pc=00008968 cycles=6560
PROFILE: pc_top rank=28 pc=0000896c cycles=6560
PROFILE: pc_top rank=29 pc=00008970 cycles=6560
PROFILE: pc_top rank=30 pc=00008a94 cycles=6560
PROFILE: pc_top rank=31 pc=00008a98 cycles=6560
PROFILE: pc_top rank=32 pc=00008a9c cycles=6560
PROFILE: pc_top rank=33 pc=00008ba8 cycles=6440
PROFILE: pc_top rank=34 pc=00008c8c cycles=6440
PROFILE: pc_top rank=35 pc=0000052c cycles=6330
PROFILE: pc_top rank=36 pc=00000530 cycles=6330
PROFILE: pc_top rank=37 pc=00000534 cycles=6330
PROFILE: pc_top rank=38 pc=00000538 cycles=6330
PROFILE: pc_top rank=39 pc=00008bac cycles=6320
PROFILE: timed_pc_top rank=0 pc=0000059c cycles=27910
PROFILE: timed_pc_top rank=1 pc=000005a0 cycles=27910
PROFILE: timed_pc_top rank=2 pc=000005a4 cycles=27910
PROFILE: timed_pc_top rank=3 pc=0000058c cycles=27780
PROFILE: timed_pc_top rank=4 pc=00000590 cycles=27780
PROFILE: timed_pc_top rank=5 pc=00000594 cycles=27780
PROFILE: timed_pc_top rank=6 pc=00000598 cycles=27780
PROFILE: timed_pc_top rank=7 pc=00000bc0 cycles=7630
PROFILE: timed_pc_top rank=8 pc=00000bc4 cycles=7630
PROFILE: timed_pc_top rank=9 pc=00000bc8 cycles=7620
PROFILE: timed_pc_top rank=10 pc=00000bcc cycles=7620
PROFILE: timed_pc_top rank=11 pc=00008b98 cycles=7400
PROFILE: timed_pc_top rank=12 pc=00008b9c cycles=7400
PROFILE: timed_pc_top rank=13 pc=00008ba0 cycles=7400
PROFILE: timed_pc_top rank=14 pc=00008ba4 cycles=7400
PROFILE: timed_pc_top rank=15 pc=00008c7c cycles=7400
PROFILE: timed_pc_top rank=16 pc=00008c80 cycles=7400
PROFILE: timed_pc_top rank=17 pc=00008c84 cycles=7400
PROFILE: timed_pc_top rank=18 pc=00008c88 cycles=7400
PROFILE: timed_pc_top rank=19 pc=00000bd0 cycles=7130
PROFILE: timed_pc_top rank=20 pc=00000bd4 cycles=7130
PROFILE: timed_pc_top rank=21 pc=00000bd8 cycles=7120
PROFILE: timed_pc_top rank=22 pc=00000bdc cycles=7120
PROFILE: timed_pc_top rank=23 pc=00000518 cycles=6840
PROFILE: timed_pc_top rank=24 pc=0000051c cycles=6840
PROFILE: timed_pc_top rank=25 pc=00000520 cycles=6780
PROFILE: timed_pc_top rank=26 pc=00000524 cycles=6780
PROFILE: timed_pc_top rank=27 pc=00008968 cycles=6560
PROFILE: timed_pc_top rank=28 pc=0000896c cycles=6560
PROFILE: timed_pc_top rank=29 pc=00008970 cycles=6560
PROFILE: timed_id_branch_pending_pc_top rank=0 pc=000005a4 cycles=27910
PROFILE: timed_id_branch_pending_pc_top rank=1 pc=00000bc4 cycles=7630
PROFILE: timed_id_branch_pending_pc_top rank=2 pc=00000bcc cycles=7620
PROFILE: timed_id_branch_pending_pc_top rank=3 pc=00000bd4 cycles=7130
PROFILE: timed_id_branch_pending_pc_top rank=4 pc=00000bdc cycles=7120
PROFILE: timed_id_branch_pending_pc_top rank=5 pc=0000051c cycles=6840
PROFILE: timed_id_branch_pending_pc_top rank=6 pc=00000524 cycles=6779
PROFILE: timed_id_branch_pending_pc_top rank=7 pc=00000530 cycles=6330
PROFILE: timed_id_branch_pending_pc_top rank=8 pc=00000538 cycles=6330
PROFILE: timed_id_branch_pending_pc_top rank=9 pc=00008bb0 cycles=6320
PROFILE: timed_id_branch_pending_pc_top rank=10 pc=00008dbc cycles=6320
PROFILE: timed_id_branch_pending_pc_top rank=11 pc=0000897c cycles=4840
PROFILE: timed_id_branch_pending_pc_top rank=12 pc=00008d44 cycles=4840
PROFILE: timed_id_branch_pending_pc_top rank=13 pc=00008960 cycles=1680
PROFILE: timed_id_branch_pending_pc_top rank=14 pc=00008a8c cycles=1680
PROFILE: timed_id_branch_pending_pc_top rank=15 pc=00000508 cycles=1020
PROFILE: timed_id_branch_pending_pc_top rank=16 pc=00000514 cycles=510
PROFILE: timed_id_branch_pending_pc_top rank=17 pc=00000bbc cycles=510
PROFILE: timed_id_branch_pending_pc_top rank=18 pc=0000073c cycles=290
PROFILE: timed_id_branch_pending_pc_top rank=19 pc=0000074c cycles=290
PROFILE: timed_load_branch_fuse_load_pc_top rank=0 pc=000005a0 cycles=2
PROFILE: timed_load_branch_fuse_load_pc_top rank=1 pc=00000d90 cycles=2
PROFILE: timed_load_branch_fuse_load_pc_top rank=2 pc=00008978 cycles=2
PROFILE: timed_load_branch_fuse_load_pc_top rank=3 pc=00000504 cycles=1
PROFILE: timed_load_branch_fuse_load_pc_top rank=4 pc=00000510 cycles=1
PROFILE: timed_load_branch_fuse_load_pc_top rank=5 pc=00000518 cycles=1
PROFILE: timed_load_branch_fuse_load_pc_top rank=6 pc=0000052c cycles=1
PROFILE: timed_load_branch_fuse_load_pc_top rank=7 pc=00000534 cycles=1
PROFILE: timed_load_branch_fuse_load_pc_top rank=8 pc=000005c4 cycles=1
PROFILE: timed_load_branch_fuse_load_pc_top rank=9 pc=00000738 cycles=1
PROFILE: timed_load_branch_fuse_load_pc_top rank=10 pc=00000748 cycles=1
PROFILE: timed_load_branch_fuse_load_pc_top rank=11 pc=00000b88 cycles=1
PROFILE: timed_load_branch_fuse_load_pc_top rank=12 pc=00000bb8 cycles=1
PROFILE: timed_load_branch_fuse_load_pc_top rank=13 pc=00000bc0 cycles=1
PROFILE: timed_load_branch_fuse_load_pc_top rank=14 pc=00000bc8 cycles=1
PROFILE: timed_load_branch_fuse_load_pc_top rank=15 pc=00000bd0 cycles=1
PROFILE: timed_load_branch_fuse_load_pc_top rank=16 pc=00000bd8 cycles=1
PROFILE: timed_load_branch_fuse_load_pc_top rank=17 pc=00000c50 cycles=1
PROFILE: timed_load_branch_fuse_load_pc_top rank=18 pc=00000e20 cycles=1
PROFILE: timed_load_branch_fuse_load_pc_top rank=19 pc=000017d8 cycles=1
PROFILE: timed_load_branch_fuse_branch_pc_top rank=0 pc=000005a4 cycles=2
PROFILE: timed_load_branch_fuse_branch_pc_top rank=1 pc=00000d94 cycles=2
PROFILE: timed_load_branch_fuse_branch_pc_top rank=2 pc=0000897c cycles=2
PROFILE: timed_load_branch_fuse_branch_pc_top rank=3 pc=00000508 cycles=1
PROFILE: timed_load_branch_fuse_branch_pc_top rank=4 pc=00000514 cycles=1
PROFILE: timed_load_branch_fuse_branch_pc_top rank=5 pc=0000051c cycles=1
PROFILE: timed_load_branch_fuse_branch_pc_top rank=6 pc=00000530 cycles=1
PROFILE: timed_load_branch_fuse_branch_pc_top rank=7 pc=00000538 cycles=1
PROFILE: timed_load_branch_fuse_branch_pc_top rank=8 pc=000005c8 cycles=1
PROFILE: timed_load_branch_fuse_branch_pc_top rank=9 pc=0000073c cycles=1
PROFILE: timed_load_branch_fuse_branch_pc_top rank=10 pc=0000074c cycles=1
PROFILE: timed_load_branch_fuse_branch_pc_top rank=11 pc=00000b8c cycles=1
PROFILE: timed_load_branch_fuse_branch_pc_top rank=12 pc=00000bbc cycles=1
PROFILE: timed_load_branch_fuse_branch_pc_top rank=13 pc=00000bc4 cycles=1
PROFILE: timed_load_branch_fuse_branch_pc_top rank=14 pc=00000bcc cycles=1
PROFILE: timed_load_branch_fuse_branch_pc_top rank=15 pc=00000bd4 cycles=1
PROFILE: timed_load_branch_fuse_branch_pc_top rank=16 pc=00000bdc cycles=1
PROFILE: timed_load_branch_fuse_branch_pc_top rank=17 pc=00000c54 cycles=1
PROFILE: timed_load_branch_fuse_branch_pc_top rank=18 pc=00000e24 cycles=1
PROFILE: timed_load_branch_fuse_branch_pc_top rank=19 pc=000017dc cycles=1
PROFILE: timed_id_redirect_pc_top rank=0 pc=00008c8c cycles=6320
PROFILE: timed_id_redirect_pc_top rank=1 pc=00008bb4 cycles=5440
PROFILE: timed_id_redirect_pc_top rank=2 pc=00008dc0 cycles=5440
PROFILE: timed_id_redirect_pc_top rank=3 pc=00008aa0 cycles=4840
PROFILE: timed_id_redirect_pc_top rank=4 pc=0000899c cycles=3480
PROFILE: timed_id_redirect_pc_top rank=5 pc=00008980 cycles=3280
PROFILE: timed_id_redirect_pc_top rank=6 pc=00008d48 cycles=3280
PROFILE: timed_id_redirect_pc_top rank=7 pc=00004efc cycles=3240
PROFILE: timed_id_redirect_pc_top rank=8 pc=00005248 cycles=3240
PROFILE: timed_id_redirect_pc_top rank=9 pc=00005098 cycles=2880
PROFILE: timed_id_redirect_pc_top rank=10 pc=00005498 cycles=2880
PROFILE: timed_id_redirect_pc_top rank=11 pc=00008930 cycles=2160
PROFILE: timed_id_redirect_pc_top rank=12 pc=00008a5c cycles=2160
PROFILE: timed_id_redirect_pc_top rank=13 pc=00008b7c cycles=1600
PROFILE: timed_id_redirect_pc_top rank=14 pc=00008d80 cycles=1600
PROFILE: timed_id_redirect_pc_top rank=15 pc=00008da8 cycles=1600
PROFILE: timed_id_redirect_pc_top rank=16 pc=00008d54 cycles=1560
PROFILE: timed_id_redirect_pc_top rank=17 pc=00008970 cycles=1360
PROFILE: timed_id_redirect_pc_top rank=18 pc=00008a9c cycles=1360
PROFILE: timed_id_redirect_pc_top rank=19 pc=000097d0 cycles=1360
PROFILE: timed_predict_redirect_pc_top rank=0 pc=000005a4 cycles=27910
PROFILE: timed_predict_redirect_pc_top rank=1 pc=00000bdc cycles=7120
PROFILE: timed_predict_redirect_pc_top rank=2 pc=00000524 cycles=6779
PROFILE: timed_predict_redirect_pc_top rank=3 pc=00000538 cycles=6330
PROFILE: timed_predict_redirect_pc_top rank=4 pc=00008b14 cycles=320
PROFILE: timed_predict_redirect_pc_top rank=5 pc=00008b28 cycles=320
PROFILE: timed_predict_redirect_pc_top rank=6 pc=0000073c cycles=290
PROFILE: timed_predict_redirect_pc_top rank=7 pc=0000074c cycles=290
PROFILE: timed_predict_redirect_pc_top rank=8 pc=00001844 cycles=290
PROFILE: timed_predict_redirect_pc_top rank=9 pc=00001850 cycles=290
PROFILE: timed_predict_redirect_pc_top rank=10 pc=000015bc cycles=150
PROFILE: timed_predict_redirect_pc_top rank=11 pc=00001548 cycles=130
PROFILE: timed_predict_redirect_pc_top rank=12 pc=0000075c cycles=80
PROFILE: timed_predict_redirect_pc_top rank=13 pc=00000774 cycles=80
PROFILE: timed_predict_redirect_pc_top rank=14 pc=0000078c cycles=80
PROFILE: timed_predict_redirect_pc_top rank=15 pc=000007a4 cycles=80
PROFILE: timed_predict_redirect_pc_top rank=16 pc=00001048 cycles=80
PROFILE: timed_predict_redirect_pc_top rank=17 pc=00001060 cycles=80
PROFILE: timed_predict_redirect_pc_top rank=18 pc=00001078 cycles=80
PROFILE: timed_predict_redirect_pc_top rank=19 pc=00001090 cycles=80
PROFILE: timed_non_idex_prev_pc_top rank=0 pc=0000186c cycles=490
PROFILE: timed_non_idex_prev_pc_top rank=1 pc=00000528 cycles=450
PROFILE: timed_non_idex_prev_pc_top rank=2 pc=00001848 cycles=281
PROFILE: timed_non_idex_prev_pc_top rank=3 pc=000005a8 cycles=130
PROFILE: timed_non_idex_prev_pc_top rank=4 pc=00000dd8 cycles=60
PROFILE: timed_non_idex_prev_pc_top rank=5 pc=00000b90 cycles=20
PROFILE: timed_non_idex_prev_pc_top rank=6 pc=00000740 cycles=10
PROFILE: timed_non_idex_prev_pc_top rank=7 pc=00000c34 cycles=10
PROFILE: timed_non_idex_prev_pc_top rank=8 pc=00000d80 cycles=10
PROFILE: timed_non_idex_prev_pc_top rank=9 pc=0000052c cycles=2
PROFILE: timed_non_idex_prev_pc_top rank=10 pc=0000058c cycles=2
PROFILE: timed_non_idex_prev_pc_top rank=11 pc=00000744 cycles=2
PROFILE: timed_non_idex_prev_pc_top rank=12 pc=000003f4 cycles=1
PROFILE: timed_non_idex_prev_pc_top rank=13 pc=000004c4 cycles=1
PROFILE: timed_non_idex_prev_pc_top rank=14 pc=000004d8 cycles=1
PROFILE: timed_non_idex_prev_pc_top rank=15 pc=000004ec cycles=1
PROFILE: timed_non_idex_prev_pc_top rank=16 pc=00000520 cycles=1
PROFILE: timed_non_idex_prev_pc_top rank=17 pc=00000524 cycles=1
PROFILE: timed_non_idex_prev_pc_top rank=18 pc=00000558 cycles=1
PROFILE: timed_non_idex_prev_pc_top rank=19 pc=0000059c cycles=1
PROFILE: id_branch_decode_candidate_cycles=414444
PROFILE: id_branch_decode_ready_cycles=300629
PROFILE: id_branch_decode_pending_cycles=113815
PROFILE: id_branch_decode_redirect_cycles=100443
PROFILE: id_branch_decode_rs1_pending_cycles=113174
PROFILE: id_branch_decode_rs2_pending_cycles=641
PROFILE: id_branch_decode_rs1_idex_pending_cycles=113174
PROFILE: id_branch_decode_rs2_idex_pending_cycles=641
PROFILE: id_branch_decode_rs1_exmem_pending_cycles=0
PROFILE: id_branch_decode_rs2_exmem_pending_cycles=0
PROFILE: id_branch_decode_rs1_idex_load_pending_cycles=113174
PROFILE: id_branch_decode_rs2_idex_load_pending_cycles=585
PROFILE: id_branch_decode_rs1_idex_lui_pending_cycles=0
PROFILE: id_branch_decode_rs2_idex_lui_pending_cycles=0
PROFILE: id_branch_decode_rs1_idex_pc4_pending_cycles=0
PROFILE: id_branch_decode_rs2_idex_pc4_pending_cycles=0
PROFILE: id_branch_decode_rs1_idex_alu_pending_cycles=0
PROFILE: id_branch_decode_rs2_idex_alu_pending_cycles=56
PROFILE: id_beq_decode_candidate_cycles=222713
PROFILE: id_bne_decode_candidate_cycles=96460
PROFILE: id_blt_decode_candidate_cycles=7073
PROFILE: id_bge_decode_candidate_cycles=16466
PROFILE: id_bltu_decode_candidate_cycles=47251
PROFILE: id_bgeu_decode_candidate_cycles=24481
PROFILE: id_beq_decode_pending_cycles=64070
PROFILE: id_bne_decode_pending_cycles=49689
PROFILE: id_blt_decode_pending_cycles=0
PROFILE: id_bge_decode_pending_cycles=0
PROFILE: id_bltu_decode_pending_cycles=56
PROFILE: id_bgeu_decode_pending_cycles=0
$finish called at time : 16598245 ns : File "D:/BaiduSyncdisk/02_icdc_workspace/.worktrees/coremark7-dmips5-20260508/YH_rv_cpu/tb/YH_rv_cpu_coremark_profile_tb.v" Line 1110
run: Time (s): cpu = 00:00:00 ; elapsed = 00:01:07 . Memory (MB): peak = 195.414 ; gain = 0.461
exit
INFO: xsimkernel Simulation Memory Usage: 19248 KB (Peak: 19248 KB), Simulation CPU Usage: 66359 ms
INFO: [Common 17-206] Exiting xsim at Fri May 15 20:51:56 2026...
